Bootstrap & Simulation - The Marginal Effects Zoo
…
est <- avg_comparisons(mod, by = "Species", variables = "Petal.Width") |>
  inferences(method = "rsample", R = 100, strata = "Species")
est
#> 
#>         Term Contrast    Species Estimate  2.5 % 97.5 %
#>  Petal.Width mean(+1) setosa      -0.1103 -0.648  0.514
#>  Petal.Width mean(+1) versicolor  -0.0201 -0.291  0.309
#>  Petal.Width mean(+1) virginica    0.0216 -0.296  0.404
#> 
#> Columns: term, contrast, Species, estimate, predicted_lo, predicted_hi, predicted, conf.low, conf.high 
#> Type:  response

attr(est, "inferences")
#> # Bootstrap sampling using stratification with apparent sample 
#> # A tibble: 101 × 3
#>    splits           id           estimates       
#>    <list>           <chr>        <list>          
#>  1 <split [150/62]> Bootstrap001 <tibble [3 × 7]>
#>  2 <split [150/61]> Bootstrap002 <tibble [3 × 7]>
#>  3 <split [150/55]> Bootstrap003 <tibble [3 × 7]>
#>  4 <split [150/55]> Bootstrap004 <tibble [3 × 7]>
#>  5 <split [150/57]> Bootstrap005 <tibble [3 × 7]>
#>  6 <split [150/48]> Bootstrap006 <tibble [3 × 7]>
#>  7 <split [150/54]> Bootstrap007 <tibble [3 × 7]>
#>  8 <split [150/57]> Bootstrap008 <tibble [3 × 7]>
#>  9 <split [150/58]> Bootstrap009 <tibble [3 × 7]>
#> 10 <split [150/55]> Bootstrap010 <tibble [3 × 7]>
#> # ℹ 91 more rows
…
