…
    (32, 12)

``` python
pre.shape
```

    (32, 20)

``` python
print(pre)
```

    shape: (32, 7)
    ┌──────────┬───────────┬──────┬──────────┬──────┬──────┬───────┐
    │ Estimate ┆ Std.Error ┆ z    ┆ P(>|z|)  ┆ S    ┆ 2.5% ┆ 97.5% │
    │ ---      ┆ ---       ┆ ---  ┆ ---      ┆ ---  ┆ ---  ┆ ---   │
    │ str      ┆ str       ┆ str  ┆ str      ┆ str  ┆ str  ┆ str   │
    ╞══════════╪═══════════╪══════╪══════════╪══════╪══════╪═══════╡
    │ 22.5     ┆ 0.884     ┆ 25.4 ┆ 0        ┆ inf  ┆ 20.7 ┆ 24.3  │
    │ 20.8     ┆ 1.19      ┆ 17.4 ┆ 4e-15    ┆ 47.8 ┆ 18.3 ┆ 23.3  │
    │ 25.3     ┆ 0.709     ┆ 35.7 ┆ 0        ┆ inf  ┆ 23.8 ┆ 26.7  │
    │ 20.3     ┆ 0.704     ┆ 28.8 ┆ 0        ┆ inf  ┆ 18.8 ┆ 21.7  │
    │ …        ┆ …         ┆ …    ┆ …        ┆ …    ┆ …    ┆ …     │
    │ 15.9     ┆ 1.31      ┆ 12.1 ┆ 1e-11    ┆ 36.5 ┆ 13.2 ┆ 18.6  │
    │ 19.4     ┆ 1.15      ┆ 16.9 ┆ 7.33e-15 ┆ 47   ┆ 17   ┆ 21.8  │
    │ 14.8     ┆ 2.02      ┆ 7.33 ┆ 1.43e-07 ┆ 22.7 ┆ 10.6 ┆ 19    │
    │ 21.5     ┆ 1.07      ┆ 20   ┆ 2.22e-16 ┆ 52   ┆ 19.2 ┆ 23.7  │
    └──────────┴───────────┴──────┴──────────┴──────┴──────┴───────┘

    Columns: rowid, estimate, std_error, statistic, p_value, s_value, conf_low, conf_high, rownames, mpg, cyl, disp, hp, drat, wt, qsec, vs, am, gear, carb

Now, we use the `comparisons()` function to compute the difference in
predicted outcome when each of the predictors is incremented by 1 unit
(one predictor at a time, holding all others constant). Once again,
comparisons are unit-level quantities. And since there are 3 predictors
in the model and our data has 32 rows, we obtain 96 comparisons:

### R

``` r
cmp <- comparisons(mod)

nrow(cmp)
```

    [1] 96

``` r
cmp
```


     Term Contrast Estimate Std. Error      z Pr(>|z|)   S  2.5 % 97.5 %
       am    1 - 0    0.325       1.68  0.193   0.8467 0.2  -2.97  3.622
       am    1 - 0   -0.544       1.57 -0.347   0.7287 0.5  -3.62  2.530
       am    1 - 0    1.201       2.35  0.511   0.6090 0.7  -3.40  5.802
       am    1 - 0   -1.703       1.87 -0.912   0.3618 1.5  -5.36  1.957
       am    1 - 0   -0.615       1.68 -0.366   0.7146 0.5  -3.91  2.680
    --- 86 rows omitted. See ?avg_comparisons and ?print.marginaleffects --- 
…
``` python
cmp = comparisons(mod)

cmp.shape
```

    (96, 25)

``` python
print(cmp)
```

    shape: (96, 9)
    ┌──────┬──────────┬──────────┬───────────┬───┬──────────┬───────┬─────────┬─────────┐
    │ Term ┆ Contrast ┆ Estimate ┆ Std.Error ┆ … ┆ P(>|z|)  ┆ S     ┆ 2.5%    ┆ 97.5%   │
    │ ---  ┆ ---      ┆ ---      ┆ ---       ┆   ┆ ---      ┆ ---   ┆ ---     ┆ ---     │
    │ str  ┆ str      ┆ str      ┆ str       ┆   ┆ str      ┆ str   ┆ str     ┆ str     │
    ╞══════╪══════════╪══════════╪═══════════╪═══╪══════════╪═══════╪═════════╪═════════╡
    │ wt   ┆ +1       ┆ -6.61    ┆ 1.87      ┆ … ┆ 0.00165  ┆ 9.24  ┆ -10.5   ┆ -2.76   │
    │ wt   ┆ +1       ┆ -6.61    ┆ 1.87      ┆ … ┆ 0.00165  ┆ 9.24  ┆ -10.5   ┆ -2.76   │
    │ wt   ┆ +1       ┆ -7.16    ┆ 1.8       ┆ … ┆ 0.000554 ┆ 10.8  ┆ -10.9   ┆ -3.45   │
    │ wt   ┆ +1       ┆ -3.21    ┆ 2.01      ┆ … ┆ 0.124    ┆ 3.02  ┆ -7.35   ┆ 0.939   │
    │ …    ┆ …        ┆ …        ┆ …         ┆ … ┆ …        ┆ …     ┆ …       ┆ …       │
    │ hp   ┆ +1       ┆ -0.0192  ┆ 0.0135    ┆ … ┆ 0.168    ┆ 2.57  ┆ -0.047  ┆ 0.00866 │
    │ hp   ┆ +1       ┆ -0.0321  ┆ 0.0167    ┆ … ┆ 0.0671   ┆ 3.9   ┆ -0.0666 ┆ 0.00244 │
    │ hp   ┆ +1       ┆ -0.0063  ┆ 0.0136    ┆ … ┆ 0.648    ┆ 0.626 ┆ -0.0344 ┆ 0.0218  │
    │ hp   ┆ +1       ┆ -0.0318  ┆ 0.0166    ┆ … ┆ 0.068    ┆ 3.88  ┆ -0.066  ┆ 0.00254 │
    └──────┴──────────┴──────────┴───────────┴───┴──────────┴───────┴─────────┴─────────┘

    Columns: rowid, term, contrast, estimate, std_error, statistic, p_value, s_value, conf_low, conf_high, predicted, predicted_lo, predicted_hi, rownames, mpg, cyl, disp, hp, drat, wt, qsec, vs, am, gear, carb

The `comparisons()` function allows customized queries. For example,
what happens to the predicted outcome when the `hp` variable increases
from 100 to 120?

### R

``` r
comparisons(mod, variables = list(hp = c(120, 100)))
```


     Term  Contrast Estimate Std. Error      z Pr(>|z|)   S  2.5 %  97.5 %
       hp 120 - 100   -0.738      0.370 -1.995  0.04607 4.4 -1.463 -0.0129
       hp 120 - 100   -0.574      0.313 -1.836  0.06640 3.9 -1.186  0.0388
       hp 120 - 100   -0.931      0.452 -2.062  0.03922 4.7 -1.817 -0.0460
       hp 120 - 100   -0.845      0.266 -3.182  0.00146 9.4 -1.366 -0.3248
       hp 120 - 100   -0.780      0.268 -2.909  0.00362 8.1 -1.306 -0.2547
    --- 22 rows omitted. See ?avg_comparisons and ?print.marginaleffects --- 
…
### Python

``` python
cmp = comparisons(mod, variables = {"hp": [120, 100]})
print(cmp)
```

    shape: (32, 9)
    ┌──────┬───────────┬──────────┬───────────┬───┬─────────┬───────┬───────────┬───────┐
    │ Term ┆ Contrast  ┆ Estimate ┆ Std.Error ┆ … ┆ P(>|z|) ┆ S     ┆ 2.5%      ┆ 97.5% │
    │ ---  ┆ ---       ┆ ---      ┆ ---       ┆   ┆ ---     ┆ ---   ┆ ---       ┆ ---   │
    │ str  ┆ str       ┆ str      ┆ str       ┆   ┆ str     ┆ str   ┆ str       ┆ str   │
    ╞══════╪═══════════╪══════════╪═══════════╪═══╪═════════╪═══════╪═══════════╪═══════╡
    │ hp   ┆ 100 - 120 ┆ 0.738    ┆ 0.37      ┆ … ┆ 0.0576  ┆ 4.12  ┆ -0.0256   ┆ 1.5   │
    │ hp   ┆ 100 - 120 ┆ 0.574    ┆ 0.313     ┆ … ┆ 0.0788  ┆ 3.67  ┆ -0.0713   ┆ 1.22  │
    │ hp   ┆ 100 - 120 ┆ 0.931    ┆ 0.452     ┆ … ┆ 0.0502  ┆ 4.32  ┆ -0.000919 ┆ 1.86  │
    │ hp   ┆ 100 - 120 ┆ 0.845    ┆ 0.266     ┆ … ┆ 0.00401 ┆ 7.96  ┆ 0.297     ┆ 1.39  │
    │ …    ┆ …         ┆ …        ┆ …         ┆ … ┆ …       ┆ …     ┆ …         ┆ …     │
    │ hp   ┆ 100 - 120 ┆ 0.384    ┆ 0.27      ┆ … ┆ 0.168   ┆ 2.57  ┆ -0.173    ┆ 0.941 │
    │ hp   ┆ 100 - 120 ┆ 0.641    ┆ 0.334     ┆ … ┆ 0.0671  ┆ 3.9   ┆ -0.0488   ┆ 1.33  │
    │ hp   ┆ 100 - 120 ┆ 0.126    ┆ 0.272     ┆ … ┆ 0.648   ┆ 0.626 ┆ -0.436    ┆ 0.688 │
    │ hp   ┆ 100 - 120 ┆ 0.635    ┆ 0.332     ┆ … ┆ 0.068   ┆ 3.88  ┆ -0.0507   ┆ 1.32  │
    └──────┴───────────┴──────────┴───────────┴───┴─────────┴───────┴───────────┴───────┘

    Columns: rowid, term, contrast, estimate, std_error, statistic, p_value, s_value, conf_low, conf_high, predicted, predicted_lo, predicted_hi, rownames, mpg, cyl, disp, hp, drat, wt, qsec, vs, am, gear, carb

What happens to the predicted outcome when the `wt` variable increases
by 1 standard deviation about its mean?

### R

``` r
comparisons(mod, variables = list(hp = "sd"))
```


     Term                Contrast Estimate Std. Error      z Pr(>|z|)   S 2.5 %  97.5 %
       hp (x + sd/2) - (x - sd/2)   -2.530      1.269 -1.995  0.04607 4.4 -5.02 -0.0441
       hp (x + sd/2) - (x - sd/2)   -1.967      1.072 -1.836  0.06640 3.9 -4.07  0.1332
       hp (x + sd/2) - (x - sd/2)   -3.193      1.549 -2.062  0.03922 4.7 -6.23 -0.1578
       hp (x + sd/2) - (x - sd/2)   -2.898      0.911 -3.182  0.00146 9.4 -4.68 -1.1133
       hp (x + sd/2) - (x - sd/2)   -2.675      0.919 -2.909  0.00362 8.1 -4.48 -0.8731
    --- 22 rows omitted. See ?avg_comparisons and ?print.marginaleffects --- 
…
    Columns: term, contrast, estimate, std.error, statistic, p.value, s.value, conf.low, conf.high, predicted_lo, predicted_hi, predicted 
    Type:  response 

### Python

``` python
cmp = comparisons(
  mod,
  variables = {"hp": 50},
  comparison = "ratioavg")
print(cmp)
```

    shape: (1, 9)
    ┌──────┬──────────┬──────────┬───────────┬───┬─────────┬─────┬──────┬───────┐
    │ Term ┆ Contrast ┆ Estimate ┆ Std.Error ┆ … ┆ P(>|z|) ┆ S   ┆ 2.5% ┆ 97.5% │
    │ ---  ┆ ---      ┆ ---      ┆ ---       ┆   ┆ ---     ┆ --- ┆ ---  ┆ ---   │
    │ str  ┆ str      ┆ str      ┆ str       ┆   ┆ str     ┆ str ┆ str  ┆ str   │
    ╞══════╪══════════╪══════════╪═══════════╪═══╪═════════╪═════╪══════╪═══════╡
    │ hp   ┆ +50      ┆ 0.91     ┆ 0.0291    ┆ … ┆ 0       ┆ inf ┆ 0.85 ┆ 0.97  │
    └──────┴──────────┴──────────┴───────────┴───┴─────────┴─────┴──────┴───────┘

    Columns: term, contrast, estimate, std_error, statistic, p_value, s_value, conf_low, conf_high

See the [Comparisons vignette for detailed explanations and more
options.](comparisons.html)

The `slopes()` function allows us to compute the partial derivative of
the outcome equation with respect to each of the predictors. Once again,
we obtain a data frame with 96 rows:

### R

``` r
mfx <- slopes(mod)

nrow(mfx)
```

    [1] 96

``` r
mfx
```


     Term Contrast Estimate Std. Error      z Pr(>|z|)   S  2.5 % 97.5 %
       am    1 - 0    0.325       1.68  0.193   0.8467 0.2  -2.97  3.622
       am    1 - 0   -0.544       1.57 -0.347   0.7287 0.5  -3.62  2.530
       am    1 - 0    1.201       2.35  0.511   0.6090 0.7  -3.40  5.802
       am    1 - 0   -1.703       1.87 -0.912   0.3618 1.5  -5.36  1.957
       am    1 - 0   -0.615       1.68 -0.366   0.7146 0.5  -3.91  2.680
    --- 86 rows omitted. See ?avg_slopes and ?print.marginaleffects --- 
…
