The Marginal Effects Zoo (0.16.0) - 9 Bootstrap & Simulation
…
est <- avg_comparisons(mod, by = "Species", variables = "Petal.Width") |>
  inferences(method = "rsample", R = 100, strata = "Species")
est
#> 
#>         Term Contrast    Species Estimate  2.5 % 97.5 %
#>  Petal.Width mean(+1) setosa      -0.1103 -0.569  0.466
#>  Petal.Width mean(+1) versicolor  -0.0201 -0.291  0.291
#>  Petal.Width mean(+1) virginica    0.0216 -0.289  0.345
#> 
#> Columns: term, contrast, Species, estimate, predicted_lo, predicted_hi, predicted, conf.low, conf.high 
#> Type:  response

attr(est, "inferences")
#> # Bootstrap sampling using stratification with apparent sample 
#> # A tibble: 101 × 3
#>    splits           id           estimates       
#>    <list>           <chr>        <list>          
#>  1 <split [150/52]> Bootstrap001 <tibble [3 × 7]>
#>  2 <split [150/57]> Bootstrap002 <tibble [3 × 7]>
#>  3 <split [150/51]> Bootstrap003 <tibble [3 × 7]>
#>  4 <split [150/52]> Bootstrap004 <tibble [3 × 7]>
#>  5 <split [150/57]> Bootstrap005 <tibble [3 × 7]>
#>  6 <split [150/60]> Bootstrap006 <tibble [3 × 7]>
#>  7 <split [150/55]> Bootstrap007 <tibble [3 × 7]>
#>  8 <split [150/55]> Bootstrap008 <tibble [3 × 7]>
#>  9 <split [150/48]> Bootstrap009 <tibble [3 × 7]>
#> 10 <split [150/60]> Bootstrap010 <tibble [3 × 7]>
#> # ℹ 91 more rows
…
